{
  "count": 23823,
  "next": "http://researchinspb.ru/api/v1/public/vacancy/?page=2",
  "previous": null,
  "results": [
    {
      "id": 1313,
      "organization": {
        "id": 704,
        "description": "<p><em><strong>Work5</strong></em> – №1 на рынке консультационных услуг для студентов по количеству стационарных офисов-филиалов в 20 городах России от Владивостока до Москвы. Наше основное направление – написание дипломных, курсовых, контрольных и других видов студенческих работ. За это время мы помогли десяткам тысяч студентов получить высшее образование и освоить специализацию. </p> <p><em><strong>Наша команда</strong></em></p> <p>В Work5 вы найдёте профессионалов, с которыми приятно работать вместе, единомышленников, с которыми нескучно отдыхать, и экспертов, у которых можно многому научиться.</p> <p><em><strong>Условия работы</strong></em></p> <ol> <li> <p>Комфортный офис в центре города, с панорамным видом на город и храм Александра Невского.</p> </li> <li> <p>Бесплатный зерновой кофе, печенье и фрукты.</p> </li> <li> <p>Официальное трудоустройство согласно ТК РФ.</p> </li> <li> <p>Гибкий график работы.</p> </li> </ol> <p><em><strong>Расположение</strong></em></p> <p>Головной офис компании находится в центре города Новосибирска.</p>",
        "organization": null,
        "logo": {
          "url": "https://hhcdn.ru/employer-logo-original/962865.png"
        },
        "site": "http://bit.ly/2TVyS6a",
        "name": "Ворк5",
        "address": null
      },
      "name": "Автор по государственному и муниципальному управлению",
      "employmentType": {
        "id": 2,
        "name": "Частичная занятость"
      },
      "schedule": [
        {
          "id": 4,
          "name": "Удаленная работа"
        }
      ],
      "experience": {
        "id": 1,
        "name": "Без опыта"
      },
      "educationLevel": {
        "id": 1,
        "name": "Общее"
      },
      "salaryFrom": null,
      "salaryUpTo": 50000,
      "beforeTax": true,
      "description": "<p>Work5 помогает студентам, когда нужно сделать все строго по методичке и успеть в срок.</p> <p>Мы ищем сотрудников на <strong>удаленную работу.</strong></p> <p>Вы умны, ответственны и заинтересованы получить работу автором с постоянным доходом? Тогда эта работа для Вас!</p> <p><strong>Кому подходит работа автором</strong></p> <p>Есть законченное высшее образование или возможно Вы студент старшего курса?</p> <p>У Вас свободный доступ в интернет — не проблема?</p> <p>Попробуйте себя в новом амплуа, если хоть что-то из этого можно сказать о Вас:</p> <ul> <li> <p>грамотный,</p> </li> <li> <p>дотошный,</p> </li> <li> <p>исполнительный,</p> </li> <li> <p>ответственный,</p> </li> <li> <p>умеете укладываться в дедлайн.</p> </li> </ul> <p><strong>Мы предлагаем:</strong></p> <ul> <li> <p>Задания на выбор по разным дисциплинам.</p> </li> <li> <p>Дополнительный доход, зависящий от Ваших умений.</p> </li> <li> <p>Свободный график.</p> </li> </ul> <p>Обязательного количества выполняемых заданий нет, Вы сами регулируете свою нагрузку.</p> <p><strong>Работать удаленно у нас — прибыльно</strong></p> <ul> <li> <p>Всегда много новых заказов.</p> </li> <li> <p>Оплата стабильно раз в 2 недели.</p> </li> <li> <p>Различные бонусы за выполненные работы.</p> </li> </ul> <p><strong>Как стать автором</strong></p> <ul> <li>Пройдите тестирование.</li> <li>Сдав тест, Вы становитесь нашим автором и можете откликаться на заказы по своей тематике.</li> </ul> <p>Делайте то, что нравится, в удобном для Вас графике и получайте дополнительный доход, работая с Work5.</p>",
      "professions": [],
      "mainVacancyCompetencies": [
        {
          "id": 20,
          "name": "Грамотная речь"
        },
        {
          "id": 80,
          "name": "Грамотность"
        },
        {
          "id": 18,
          "name": "Пользователь ПК"
        }
      ],
      "desirableVacancyCompetencies": [],
      "personalQualities": [],
      "email": "",
      "contactName": "",
      "phone": "",
      "address": null,
      "isBlocked": false,
      "publishedAt": "2022-11-30T05:09:14+03:00",
      "isFavorite": false,
      "hhUrl": "https://hh.ru/vacancy/73105930"
    }
  ]
}
